trinity_simple.vcd
$date
	Sat Feb 28 22:07:30 2026
$end
$version
	Icarus Verilog
$end
$timescale
	1ps
$end
$scope module tb_simple $end
$scope module dut $end
$var wire 32 ! PHI [31:0] $end
$var wire 32 " PHI_SQ [31:0] $end
$var wire 32 # TRINITY [31:0] $end
$var wire 1 $ clk $end
$var wire 32 % data_in [31:0] $end
$var wire 1 & rst_n $end
$var wire 1 ' valid_in $end
$var wire 1 ( ready $end
$var wire 4 ) led [3:0] $end
$var wire 16 * gpio [15:0] $end
$var parameter 2 + DONE $end
$var parameter 2 , IDLE $end
$var parameter 2 - PROCESS $end
$var reg 32 . cycle_counter [31:0] $end
$var reg 32 / data_out [31:0] $end
$var reg 2 0 state [1:0] $end
$var reg 1 1 valid_out $end
$upscope $end
$upscope $end
$enddefinitions $end
$comment Show the parameter values. $end
$dumpall
b1 -
b0 ,
b10 +
$end
#0
$dumpvars
01
b0 0
b0 /
b0 .
b10000111100011 *
b0 )
1(
0'
0&
b0 %
0$
b110000000000000000 #
b101001111000011111 "
b11001111000111000 !
$end
#5000
1$
#10000
0$
#15000
1$
#20000
0$
#25000
1$
#30000
0$
#35000
1$
#40000
0$
#45000
1$
#50000
0$
#55000
1$
#60000
0$
#65000
1$
#70000
0$
#75000
1$
#80000
0$
#85000
1$
#90000
0$
#95000
b1 .
1&
1$
#100000
0$
#105000
b10 .
1$
#110000
0$
#115000
b11 .
1$
#120000
0$
#125000
b100 .
1$
#130000
0$
#135000
b101 .
1$
#140000
0$
#145000
b110 .
1$
#150000
0$
#155000
0(
b1 0
b111 .
1'
b1 %
1$
#160000
0$
#165000
b1000 )
b10 0
b11001111000111000 /
b1000 .
0'
1$
#170000
0$
#175000
1(
b0 )
b0 0
11
b1001 .
1$
#180000
0$
#185000
01
b1010 .
1$
#190000
0$
#195000
b1011 .
1$
#200000
0$
#205000
b1100 .
1$
#210000
0$
#215000
b1101 .
1$
#220000
0$
#225000
b1110 .
1$
#230000
0$
#235000
b1111 .
1$
#240000
0$
#245000
b10000 .
1$
#250000
0$
#255000
b10001 .
1$
#260000
0$
#265000
b10010 .
1$
#270000
0$
#275000
0(
b1 0
b10011 .
1'
b11 %
1$
#280000
0$
#285000
b1000 )
b10 0
b110000000000000000 /
b10100 .
0'
1$
#290000
0$
#295000
1(
b0 )
b0 0
11
b10101 .
1$
#300000
0$
#305000
01
b10110 .
1$
#310000
0$
#315000
b10111 .
1$
#320000
0$
#325000
b11000 .
1$
#330000
0$
#335000
b11001 .
1$
#340000
0$
#345000
b11010 .
1$
#350000
0$
#355000
b11011 .
1$
#360000
0$
#365000
b11100 .
1$
#370000
0$
#375000
b11101 .
1$
#380000
0$
#385000
b11110 .
1$
#390000
0$
#395000
b11111 .
1$
#400000
0$
#405000
b100000 .
1$
#410000
0$
#415000
b100001 .
1$
#420000
0$
#425000
b100010 .
1$
#430000
0$
#435000
b100011 .
1$
#440000
0$
#445000
b100100 .
1$
#450000
0$
#455000
b100101 .
1$
#460000
0$
#465000
b100110 .
1$
#470000
0$
#475000
b100111 .
1$
#480000
0$
#485000
b101000 .
1$
#490000
0$
#495000
b101001 .
1$
#500000
0$
#505000
b101010 .
1$
#510000
0$
#515000
b101011 .
1$
#520000
0$
#525000
b101100 .
1$
#530000
0$
#535000
b101101 .
1$
#540000
0$
#545000
b101110 .
1$
#550000
0$
#555000
b101111 .
1$
#560000
0$
#565000
b110000 .
1$
#570000
0$
#575000
b110001 .
1$
#580000
0$
#585000
b110010 .
1$
#590000
0$
#595000
b110011 .
1$
#600000
0$
#605000
b110100 .
1$
#610000
0$
#615000
b110101 .
1$
#620000
0$
#625000
b110110 .
1$
#630000
0$
#635000
b110111 .
1$
#640000
0$
#645000
b111000 .
1$
#650000
0$
#655000
b111001 .
1$
#660000
0$
#665000
b111010 .
1$
#670000
0$
#675000
b111011 .
1$
#680000
0$
#685000
b111100 .
1$
#690000
0$
#695000
b111101 .
1$
#700000
0$
#705000
b111110 .
1$
#710000
0$
#715000
b111111 .
1$
#720000
0$
#725000
b1000000 .
1$
#730000
0$
#735000
b1000001 .
1$
#740000
0$
#745000
b1000010 .
1$
#750000
0$
#755000
b1000011 .
1$
#760000
0$
#765000
b1000100 .
1$
#770000
0$
#775000
b1000101 .
1$
#780000
0$
#785000
b1000110 .
1$
#790000
0$
#795000
b1000111 .
1$
#800000
0$
#805000
b1001000 .
1$
#810000
0$
#815000
b1001001 .
1$
#820000
0$
#825000
b1001010 .
1$
#830000
0$
#835000
b1001011 .
1$
#840000
0$
#845000
b1001100 .
1$
#850000
0$
#855000
b1001101 .
1$
#860000
0$
#865000
b1001110 .
1$
#870000
0$
#875000
b1001111 .
1$
#880000
0$
#885000
b1010000 .
1$
#890000
0$
#895000
b1010001 .
1$
#900000
0$
#905000
b1010010 .
1$
#910000
0$
#915000
b1010011 .
1$
#920000
0$
#925000
b1010100 .
1$
#930000
0$
#935000
b1010101 .
1$
#940000
0$
#945000
b1010110 .
1$
#950000
0$
#955000
b1010111 .
1$
#960000
0$
#965000
b1011000 .
1$
#970000
0$
#975000
b1011001 .
1$
#980000
0$
#985000
b1011010 .
1$
#990000
0$
#995000
b1011011 .
1$
#1000000
0$
#1005000
b1011100 .
1$
#1010000
0$
#1015000
b1011101 .
1$
#1020000
0$
#1025000
b1011110 .
1$
#1030000
0$
#1035000
b1011111 .
1$
#1040000
0$
#1045000
b1100000 .
1$
#1050000
0$
#1055000
b1100001 .
1$
#1060000
0$
#1065000
b1100010 .
1$
#1070000
0$
#1075000
b1100011 .
1$
#1080000
0$
#1085000
b1100100 .
1$
#1090000
0$
#1095000
b1100101 .
1$
#1100000
0$
#1105000
b1100110 .
1$
#1110000
0$
#1115000
b1100111 .
1$
#1120000
0$
#1125000
b1101000 .
1$
#1130000
0$
#1135000
b1101001 .
1$
#1140000
0$
#1145000
b1101010 .
1$
#1150000
0$
#1155000
b1101011 .
1$
#1160000
0$
#1165000
b1101100 .
1$
#1170000
0$
#1175000
b1101101 .
1$
#1180000
0$
#1185000
b1101110 .
1$
#1190000
0$
#1195000
b1101111 .
1$
#1200000
0$
#1205000
b1110000 .
1$
#1210000
0$
#1215000
b1110001 .
1$
#1220000
0$
#1225000
b1110010 .
1$
#1230000
0$
#1235000
b1110011 .
1$
#1240000
0$
#1245000
b1110100 .
1$
#1250000
0$
#1255000
b1110101 .
1$
#1260000
0$
#1265000
b1110110 .
1$
#1270000
0$
#1275000
b1110111 .
1$
#1280000
0$
#1285000
b1111000 .
1$
#1290000
0$
#1295000
b1111001 .
1$
#1300000
0$
#1305000
b1111010 .
1$
#1310000
0$
#1315000
b1111011 .
1$
#1320000
0$
#1325000
b1111100 .
1$
#1330000
0$
#1335000
b1111101 .
1$
#1340000
0$
#1345000
b1111110 .
1$
#1350000
0$
#1355000
b1111111 .
1$
#1360000
0$
#1365000
b10000000 .
1$
#1370000
0$
#1375000
b10000001 .
1$
#1380000
0$
#1385000
b10000010 .
1$
#1390000
0$
#1395000
b10000011 .
1$
#1400000
0$
#1405000
b10000100 .
1$
#1410000
0$
#1415000
b10000101 .
1$
#1420000
0$
#1425000
b10000110 .
1$
#1430000
0$
#1435000
b10000111 .
1$
#1440000
0$
#1445000
b10001000 .
1$
#1450000
0$
#1455000
b10001001 .
1$
#1460000
0$
#1465000
b10001010 .
1$
#1470000
0$
#1475000
b10001011 .
1$
#1480000
0$
#1485000
b10001100 .
1$
